﻿{
  "name": "Example",
  "version": "2.0",
  "description": "Example used for Understanding the Workflow Service Toolbox.",
  "type": "object",
  "headerTemplate": "{{self.name}}",
  "properties": {
    "name": {
      "title": "Name",
      "type": "string",
      "default": "Example"
    },
    "schema_name": {
      "title": "Schema Name",
      "type": "string",
      "default": "Example",
      "readonly": true
    },
    "dll_name": {
      "title": "DLL Name",
      "type": "string",
      "default": "BH.Workflow.Task.Template.dll",
      "readonly": "true"
    },
    "is_active": {
      "title": "Is Active",
      "type": "object",
      "format": "grid",
      "description": "Determines if the task is active or inactive",
      "properties": {
        "isMapped": {
          "type": "boolean",
          "default": false
        },
        "ProcessVariable": { "type": "string" },
        "Value": {
          "type": "boolean",
          "default": "true"
        }
      }
    },
    "working_set_input_mappings_to_process_variables": {
      "description": "Working Set Input mappings to Process Variables",
      "title": "Working Set Input Mappings",
      "type": "object",
      "properties": {
        "example_task_var_1": {
          "description": "Example Basic Type Input (string)",
          "type": "object",
          "format": "grid",
          "properties": {
            "is_mapped": {
              "type": "boolean",
              "default": false
            },
            "process_variable": { "type": "string" },
            "value": {
              "type": "string"
            }
          }
        },
        "example_task_var_2": {
          "description": "Example Complex Type Input (ExampleComplexType class)",
          "type": "object",
          "properties": {
            "is_mapped": {
              "type": "boolean",
              "default": false
            },
            "process_variable": { "type": "string" },
            "value": {
              "type": "object",
              "properties": {
                "example_prop_str": {
                  "type": "object",
                  "title": "ExamplePropStr",
                  "properties": {
                    "is_mapped": {
                      "type": "boolean",
                      "default": false
                    },
                    "process_variable": { "type": "string" },
                    "value": {
                      "type": "string",
                      "title": "Value"
                    }
                  }
                },
                "example_prop_list": {
                  "type": "array",
                  "title": "ExamplePropList",
                  "format": "table",
                  "items": {
                    "title": "ExamplePropListItem",
                    "type": "string"
                  }
                }
              }
            }
          }
        },
        "result": {
          "type": "string",
          "description": "Return Value" 
        } 
      }

    },
    "working_set_output_mappings_to_process_variables": {
      "title": "Working Set Output Mappings",
      "description": "Working Set Output mappings to Process Variables",
      "type": "object",
      "properties": {
        "result": {
          "type": "string" 
        } 
      }
    },
    "task_execution_order": {
      "title": "Task Execution Order",
      "type": "array",
      "format": "table",
      "description": "The Tasks to run after this task.",
      "items": {
        "title": "Task",
        "type": "string"
      }
    }
  }
}