﻿{
  "name": "Excel With Parameters",
  "task_dll_name": "BH.Workflow.Task.InvokeExcel.v1_0.dll",
  "is_active": true,
  "inputs": {
    "file_name": {
      "is_mapped": false,
      "process_variable": "",
      "value": "FakeExcelFile.xlsm"
    },
    "macro_name": {
      "is_mapped": false,
      "process_variable": "",
      "value": "FakeMacro"
    },
    "is_visible": {
      "is_mapped": false,
      "process_variable": "",
      "value": true
    },
    "timeout": {
      "is_mapped": false,
      "process_variable": "",
      "value": 900
    },
    "excel_parameters": {
      "is_mapped": false,
      "process_variable": "",
      "value": [
        {
          "key": "FakeExcelParam",
          "is_mapped": false,
          "process_variable": "",
          "value": "FakeExcelValue"
        }
      ]
    }
  },
  "outputs": {},
  "task_execution_order": []
}