﻿{
  "name": "Document Production",
  "task_dll_name": "BH.Workflow.Task.DocumentProduction.v2_0.dll",
  "is_active": true,
  "inputs": {
    "template_file_path": {
      "is_mapped": false,
      "process_variable": "",
      "value": "C:\\Shared\\Files\\Document Production\\Templates\\TestTemplate.docx"
    },
    "plain_text_tag_mappings": {
      "is_mapped": false,
      "process_variable": "",
      "value": [
        {
          "tag": "{&PlainTextTag1&}",
          "value": "Text of Plain Text Tag 1"
        }
      ]
    },
    "images_path": {
      "is_mapped": false,
      "process_variable": "",
      "value": "C:\\Shared\\Files\\Document Production\\Images"
    },
    "content_masters": {
      "is_mapped": false,
      "process_variable": "",
      "value": [ "C:\\Shared\\Files\\Document Production\\ContentMaster\\ContentMaster.docx" ]
    },
    "outputs": {
      "is_mapped": false,
      "process_variable": "",
      "value": [ "C:\\Shared\\Files\\Document Production\\testOutput.docx", "C:\\Shared\\Files\\Document Production\\testOutput.pdf" ]
    }
  },
  "outputs": {},
  "task_execution_order": []
}