﻿{
  "name": "Visualization Task",
  "type": "object",
  "headerTemplate": "{{self.name}}",
  "properties": {
    "name": {
      "title": "Name",
      "type": "string",
      "default": "Visualization Task"
    },
    "schema_name": {
      "title": "Schema Name",
      "type": "string",
      "default": "Visualization Task",
      "readonly": true
    },
    "dll_name": {
      "title": "Task DLL Name",
      "type": "string",
      "default": "BH.ScalableServices.Workers.Plugins.Workflow.Tasks.Visualization.v1_0.dll",
      "readonly": "true"
    },
    "is_active": {
      "title": "Is Active",
      "type": "object",
      "format": "grid",
      "description": "Determines if the task is active or inactive",
      "properties": {
        "is_mapped": {
          "title": "Is Mapped",
          "type": "boolean",
          "default": false
        },
        "process_variable": {
          "title": "Process Variable",
          "type": "string"
        },
        "value": {
          "title": "Value",
          "type": "boolean",
          "default": "true"
        }
      }
    },
    "working_set_input_mappings_to_process_variables": {
      "description": "Working Set Input mappings to Process Variables",
      "title": "Working Set Input Mappings",
      "type": "object",
      "properties": {
        "widget_instance": {
          "title": "Widget Instance",
          "desription": "The widget instance whose visualization is to be generated through the visualization API",
          "type": "object",
          "format": "grid",
          "properties": {
            "is_mapped": {
              "title": "Is Mapped",
              "type": "boolean",
              "default": false
            },
            "process_variable": {
              "title": "Process Variable",
              "type": "string"
            },
            "value": {
              "title": "Value",
              "type": "string"

            }
          }
        },
        "datasource_instance": {

          "title": "Datasource Instance",
          "desription": "The datasource instance object that specifies the request parameters to the business API",
          "type": "object",
          "format": "grid",
          "properties": {
            "is_mapped": {
              "title": "Is Mapped",
              "type": "boolean",
              "default": false
            },
            "process_variable": {
              "title": "Process Variable",
              "type": "string"
            },
            "value": {
              "title": "Value",
              "type": "string"

            }
          }
        },
        "repository": {
          "title": "Repository",
          "description": "The location to save the file",
          "type": "object",
          "format": "grid",
          "properties": {
            "is_mapped": {
              "title": "Is Mapped",
              "type": "boolean",
              "default": false
            },
            "process_variable": {
              "title": "Process Variable",
              "type": "string"
            },
            "value": {
              "type": "object",
              "properties": {
                "repository": {
                  "title": "Repository",
                  "type": "string"
                },
                "path": {
                  "title": "Path",
                  "type": "string"
                },
                "file": {
                  "title": "File",
                  "type": "string"
                }
              }
            }
          }
        },
        "file_properties": {
          "title": "File Properties",
          "description": "The properties of the saved file",
          "type": "object",
          "format": "grid",
          "properties": {
            "is_mapped": {
              "title": "Is Mapped",
              "type": "boolean",
              "default": false
            },
            "process_variable": {
              "title": "Process Variable",
              "type": "string"
            },
            "value": {
              "type": "object",
              "properties": {
                "width": {
                  "title": "Width",
                  "type": "string"
                },
                "height": {
                  "title": "Height",
                  "type": "string"
                }
              }
            }
          }
        }

      }
    },

    "working_set_output_mappings_to_process_variables": {
      "title": "Working Set Output Mappings",
      "description": "Working Set Output mappings to Process Variables",
      "type": "object",
      "properties": {
      }
    },
    "task_execution_order": {
      "title": "Task Execution Order",
      "type": "array",
      "format": "table",
      "description": "The Tasks to run after this task.",
      "items": {
        "title": "Task",
        "type": "string"
      }
    }
  }

}
