{
  "name": "processinstance_schema",
  "title": "Process",
  "type": "object",
  "headerTemplate": "{{self.name}}",
  "properties": {
    "name": {
      "title": "Process Name",
      "type": "string",
      "default": "New Process"
    },
    "description": {
      "title": "Process Description",
      "description":"Enter description of the process purpose and overview of the outputs",
      "type": "string"
    },
    "is_active": {
      "title": "Is Active",
      "type": "boolean",
      "default": true
    },
    "task_execution_order": {
      "title": "Task Execution Order",
      "description": "Select the Tasks that will be executed and the order in which the execution will occur at run time",
      "type": "array",
      "format": "table",
      "items": {
        "type": "string",
        "title": "Task"
      }
    },
    "on_error_execution_order": {
      "title": "'Warning Path' Task Execution Order",
      "description": "Select the Tasks that will be executed and the order in which the execution will occur at run time if the Warning Path is triggered at run time",
      "type": "array",
      "format": "table",
      "items": {
        "type": "string",
        "title": "Task"
      }
    },
    "process_variables": {
      "title": "Input Process Variables",
      "description": "Add Input PVs and assign a type. Note: Input PVs with '!' are required and a value MUST be assigned",
      "type": "object",
      "patternProperties": {
        "^(!((?!CustomerName$)(?!CultureInfoCode$)(?!ReferenceTimeZone$)(.*)))": { "not": {} },
        "^\\$": { "not": {} }
      },
      "properties": {
        "!CustomerName": {
          "type": "string"
        },
        "!CultureInfoCode": {
          "type": "string",
          "description": "RFC 4646 Language Tag that corresponds the the desired culture.",
          "default": "en-US"
        },
        "!ReferenceTimeZone": {
          "type": "string",
          "description": "The timezone to be used for the process.",
          "default": "(UTC) Coordinated Universal Time"
        } 
      },
      "required": [ "!CustomerName", "!CultureInfoCode", "!ReferenceTimeZone" ]
    },
    "output_process_variables": {
      "title": "Input/Output Process Variable Mappings",
      "type": "array",
      "format": "table",
      "uniqueItems": true,
      "items": {
        "type": "object",
        "title": "Input/Output Process Variable Mapping",
        "description": "Map Input PVs that may have been updated at run time to Output PVs that can be used by a parent Process",
        "properties": {
          "process_variable_name": {
            "type": "string",
            "title": "Input Process Variable Name"
          },
          "output_process_variable_name": {
            "type": "string",
            "title": "Output Process Variable Name"
          }
        }
      }
    }
  }
}